Beer-EDA---Quynh-Chau-Final.utf8.md
…
## Question 3. IBU seems to have the most missing values at 41.7% and ABV at 2.57%.  These rows will be omitted or deleted during specific analyses

### Question 4.  Compute the median alcohol content (ABV) amnd international bitterness (IBU) and plot using bar charts to compare
## rename merged columns to more descriptive names

Medians <- AllAboutBeer %>% group_by(State) %>% summarise(count = n(), median_ABV= median(ABV,na.rm = TRUE),
                                                          median_IBU = median(IBU,na.rm = TRUE))
arrange(Medians,desc(median_ABV))

## # A tibble: 51 x 4
##    State count median_ABV median_IBU
##    <fct> <int>      <dbl>      <dbl>
##  1 " DC"     8     0.0625       47.5
##  2 " KY"    21     0.0625       31.5
##  3 " MI"   162     0.062        35  
##  4 " NM"    14     0.062        51  
##  5 " WV"     2     0.062        57.5
##  6 " CO"   265     0.0605       40  
##  7 " AL"    10     0.06         43  
##  8 " CT"    27     0.06         29  
##  9 " NV"    11     0.06         41  
## 10 " OK"    19     0.06         35  
## # ... with 41 more rows

arrange(Medians,desc(median_IBU))

## # A tibble: 51 x 4
##    State count median_ABV median_IBU
##    <fct> <int>      <dbl>      <dbl>
##  1 " ME"    27     0.051        61  
##  2 " WV"     2     0.062        57.5
##  3 " FL"    58     0.057        55  
##  4 " GA"    16     0.055        55  
##  5 " DE"     2     0.055        52  
##  6 " NM"    14     0.062        51  
##  7 " NH"     8     0.055        48.5
##  8 " DC"     8     0.0625       47.5
##  9 " NY"    74     0.055        47  
## 10 " AK"    25     0.056        46  
## # ... with 41 more rows
…
